Chapter 4 Working with data | Data Processing in R, Lecture Notes
…
summarize() divides a grouped data frame into subsets, with each subset corresponding to one value of the grouping variable (or a combination of values for several grouping variables), …

… and computes one or several values on each such subset

> # summarize several variables
> summarize(dativeSimplified_grouped, 
+           prop_NP = mean(is_realization_NP),
+           prop_animate_rec = mean( AnimacyOfRec == "animate" ),
+           prop_animate_theme = mean( AnimacyOfTheme == "animate" ),
+           )

## `summarise()` ungrouping output (override with `.groups` argument)

## # A tibble: 65 x 4
##    Verb     prop_NP prop_animate_rec prop_animate_theme
##    <fct>      <dbl>            <dbl>              <dbl>
##  1 accord     1                1                      0
##  2 allocate   0                0                      0
##  3 allow      1                0.833                  0
##  4 assess     1                1                      0
##  5 assure     1                1                      0
##  6 award      0.389            0.944                  0
##  7 bequeath   0                1                      0
##  8 bet        1                1                      0
##  9 bring      0.545            0.818                  0
## 10 carry      0                1                      0
## # … with 55 more rows

summarize() can use the results of previous computations

> # compute the averages of profit
> summarize(dativeSimplified_grouped, 
+           prop_NP = mean(is_realization_NP),
+           prop_PP = 1-prop_NP,
+           how_many_NP_realizations = ifelse(prop_NP > 0.5, "a lot", "few")
+           )

## `summarise()` ungrouping output (override with `.groups` argument)

## # A tibble: 65 x 4
##    Verb     prop_NP prop_PP how_many_NP_realizations
##    <fct>      <dbl>   <dbl> <chr>                   
##  1 accord     1       0     a lot                   
##  2 allocate   0       1     few                     
##  3 allow      1       0     a lot                   
##  4 assess     1       0     a lot                   
##  5 assure     1       0     a lot                   
##  6 award      0.389   0.611 few                     
##  7 bequeath   0       1     few                     
##  8 bet        1       0     a lot                   
##  9 bring      0.545   0.455 a lot                   
## 10 carry      0       1     few                     
## # … with 55 more rows
…
4.3 Pipes

4.3.1 The problem

The code below is really hard to read, even harder to maintain, and dativeSimplified_grouped_by_AnimacyOfRec_and_AnimacyOfTheme is a terribly long variable name.

> dativeSimplified_grouped_by_AnimacyOfRec_and_AnimacyOfTheme <-
+       group_by(dativeSimplified, AnimacyOfRec, AnimacyOfTheme)
> df <- mutate(dativeSimplified_grouped_by_AnimacyOfRec_and_AnimacyOfTheme, 
+                   perc_NP = mean(RealizationOfRec == "NP") )
> df

## # A tibble: 903 x 7
## # Groups:   AnimacyOfRec, AnimacyOfTheme [4]
##    RealizationOfRec Verb  AnimacyOfRec AnimacyOfTheme LengthOfTheme
##    <fct>            <fct> <fct>        <fct>                  <dbl>
##  1 NP               feed  animate      inanimate              2.64 
##  2 NP               give  animate      inanimate              1.10 
##  3 NP               give  animate      inanimate              2.56 
##  4 NP               give  animate      inanimate              1.61 
##  5 NP               offer animate      inanimate              1.10 
##  6 NP               give  animate      inanimate              1.39 
##  7 NP               pay   animate      inanimate              1.39 
##  8 NP               bring animate      inanimate              0    
##  9 NP               teach animate      inanimate              2.40 
## 10 NP               give  animate      inanimate              0.693
## # … with 893 more rows, and 2 more variables: is_realization_NP <lgl>,
## #   perc_NP <dbl>

This alternative is also quite bad. To read this code, you need to know which bracket matches which other bracket.

> df <- mutate(group_by(dativeSimplified, AnimacyOfRec, AnimacyOfTheme), 
+                   perc_NP = mean(RealizationOfRec == "NP") )
> df

## # A tibble: 903 x 7
## # Groups:   AnimacyOfRec, AnimacyOfTheme [4]
##    RealizationOfRec Verb  AnimacyOfRec AnimacyOfTheme LengthOfTheme
##    <fct>            <fct> <fct>        <fct>                  <dbl>
##  1 NP               feed  animate      inanimate              2.64 
##  2 NP               give  animate      inanimate              1.10 
##  3 NP               give  animate      inanimate              2.56 
##  4 NP               give  animate      inanimate              1.61 
##  5 NP               offer animate      inanimate              1.10 
##  6 NP               give  animate      inanimate              1.39 
##  7 NP               pay   animate      inanimate              1.39 
##  8 NP               bring animate      inanimate              0    
##  9 NP               teach animate      inanimate              2.40 
## 10 NP               give  animate      inanimate              0.693
## # … with 893 more rows, and 2 more variables: is_realization_NP <lgl>,
## #   perc_NP <dbl>
…
If the dot operator occurs in the first argument slot, it can be omitted. (R has pro-drop.)

> # pipe notation with omission of '.'
> 10 %>% divide_by(2)

## [1] 5

Let’s see how it can resolve the mess below. (Repetition of previous example.)

> df <- mutate(group_by(dativeSimplified, AnimacyOfRec, AnimacyOfTheme), 
+                   perc_NP = mean(RealizationOfRec == "NP") )
> df

## # A tibble: 903 x 7
## # Groups:   AnimacyOfRec, AnimacyOfTheme [4]
##    RealizationOfRec Verb  AnimacyOfRec AnimacyOfTheme LengthOfTheme
##    <fct>            <fct> <fct>        <fct>                  <dbl>
##  1 NP               feed  animate      inanimate              2.64 
##  2 NP               give  animate      inanimate              1.10 
##  3 NP               give  animate      inanimate              2.56 
##  4 NP               give  animate      inanimate              1.61 
##  5 NP               offer animate      inanimate              1.10 
##  6 NP               give  animate      inanimate              1.39 
##  7 NP               pay   animate      inanimate              1.39 
##  8 NP               bring animate      inanimate              0    
##  9 NP               teach animate      inanimate              2.40 
## 10 NP               give  animate      inanimate              0.693
## # … with 893 more rows, and 2 more variables: is_realization_NP <lgl>,
## #   perc_NP <dbl>
…
